<?xml version="1.0" encoding="UTF-8" standalone="no"?>
<svg
   xmlns:dc="http://purl.org/dc/elements/1.1/"
   xmlns:cc="http://creativecommons.org/ns#"
   xmlns:rdf="http://www.w3.org/1999/02/22-rdf-syntax-ns#"
   xmlns:svg="http://www.w3.org/2000/svg"
   xmlns="http://www.w3.org/2000/svg"
   xmlns:sodipodi="http://sodipodi.sourceforge.net/DTD/sodipodi-0.dtd"
   xmlns:inkscape="http://www.inkscape.org/namespaces/inkscape"
   width="256"
   height="256"
   viewBox="0 0 768 767.75758"
   version="1.2"
   id="svg4847"
   sodipodi:docname="static_temperament.svg"
   inkscape:version="0.92.2 5c3e80d, 2017-08-06">
  <metadata
     id="metadata4851">
    <rdf:RDF>
      <cc:Work
         rdf:about="">
        <dc:format>image/svg+xml</dc:format>
        <dc:type
           rdf:resource="http://purl.org/dc/dcmitype/StillImage" />
        <dc:title />
      </cc:Work>
    </rdf:RDF>
  </metadata>
  <sodipodi:namedview
     pagecolor="#ffffff"
     bordercolor="#666666"
     borderopacity="1"
     objecttolerance="10"
     gridtolerance="10"
     guidetolerance="10"
     inkscape:pageopacity="0"
     inkscape:pageshadow="2"
     inkscape:window-width="1530"
     inkscape:window-height="895"
     id="namedview4849"
     showgrid="false"
     inkscape:zoom="2.56"
     inkscape:cx="157.97903"
     inkscape:cy="138.84394"
     inkscape:window-x="148"
     inkscape:window-y="30"
     inkscape:window-maximized="0"
     inkscape:current-layer="svg4847"
     units="px" />
  <desc
     id="desc4755">Generated with Qt</desc>
  <defs
     id="defs4757" />
  <g
     style="font-style:normal;font-weight:400;font-size:13px;font-family:'.SF NS Text';fill:none;fill-rule:evenodd;stroke:#000000;stroke-width:1;stroke-linecap:square;stroke-linejoin:bevel;stroke-opacity:1"
     id="g4783"
     font-style="normal"
     font-weight="400"
     font-size="13"
     transform="matrix(0.620079,0,0,0.620079,0,-2400.0001)" />
  <g
     style="font-style:normal;font-weight:400;font-size:13px;font-family:'.SF NS Text';fill:none;fill-rule:evenodd;stroke:#000000;stroke-width:1;stroke-linecap:square;stroke-linejoin:bevel;stroke-opacity:1"
     id="g4787"
     font-style="normal"
     font-weight="400"
     font-size="13"
     transform="matrix(0.620079,0,0,0.620079,156.88,-1787.6661)">
    <text
       style="font-style:normal;font-weight:400;font-size:77px;font-family:'Plantin MT Std';fill:#000000;fill-opacity:1;stroke:none"
       id="text4785"
       font-style="normal"
       font-weight="400"
       font-size="77"
       y="68.890602"
       x="0"
       xml:space="preserve" />
  </g>
  <g
     style="font-style:normal;font-weight:400;font-size:13px;font-family:'.SF NS Text';fill:none;fill-rule:evenodd;stroke:#000000;stroke-width:1;stroke-linecap:square;stroke-linejoin:bevel;stroke-opacity:1"
     id="g4789"
     font-style="normal"
     font-weight="400"
     font-size="13"
     transform="matrix(0.620079,0,0,0.620079,156.88,-1787.6661)" />
  <g
     style="font-style:normal;font-weight:400;font-size:13px;font-family:'.SF NS Text';fill:none;fill-rule:evenodd;stroke:#000000;stroke-width:1;stroke-linecap:square;stroke-linejoin:bevel;stroke-opacity:1"
     id="g4791"
     font-style="normal"
     font-weight="400"
     font-size="13"
     transform="matrix(0.620079,0,0,0.620079,0,-2400.0001)" />
  <g
     style="font-style:normal;font-weight:400;font-size:13px;font-family:'.SF NS Text';fill:none;fill-rule:evenodd;stroke:#000000;stroke-width:5.20539856;stroke-linecap:butt;stroke-linejoin:bevel;stroke-miterlimit:4;stroke-dasharray:none;stroke-opacity:1"
     id="g4795"
     font-style="normal"
     font-weight="400"
     font-size="13"
     transform="matrix(0.22694985,0,0,3.1688462,-73.18173,-2870.4977)">
    <polyline
       style="vector-effect:none;fill:none;stroke-width:5.20539856;stroke-miterlimit:4;stroke-dasharray:none"
       id="polyline4793"
       points="345,1097 3674,1097 " />
  </g>
  <g
     style="font-style:normal;font-weight:400;font-size:13px;font-family:'.SF NS Text';fill:none;fill-rule:evenodd;stroke:#000000;stroke-width:5.20539856;stroke-linecap:butt;stroke-linejoin:bevel;stroke-miterlimit:4;stroke-dasharray:none;stroke-opacity:1"
     id="g4799"
     font-style="normal"
     font-weight="400"
     font-size="13"
     transform="matrix(0.22694985,0,0,3.1688462,-73.18173,-2870.4977)">
    <polyline
       style="vector-effect:none;fill:none;stroke-width:5.20539856;stroke-miterlimit:4;stroke-dasharray:none"
       id="polyline4797"
       points="345,1065 3674,1065 " />
  </g>
  <g
     style="font-style:normal;font-weight:400;font-size:13px;font-family:'.SF NS Text';fill:none;fill-rule:evenodd;stroke:#000000;stroke-width:5.20539856;stroke-linecap:butt;stroke-linejoin:bevel;stroke-miterlimit:4;stroke-dasharray:none;stroke-opacity:1"
     id="g4803"
     font-style="normal"
     font-weight="400"
     font-size="13"
     transform="matrix(0.22694985,0,0,3.1688462,-73.18173,-2870.4977)">
    <polyline
       style="vector-effect:none;fill:none;stroke-width:5.20539856;stroke-miterlimit:4;stroke-dasharray:none"
       id="polyline4801"
       points="345,1033 3674,1033 " />
  </g>
  <g
     style="font-style:normal;font-weight:400;font-size:13px;font-family:'.SF NS Text';fill:#008000;fill-rule:evenodd;stroke:#000000;stroke-width:5.20107157;stroke-linecap:butt;stroke-linejoin:round;stroke-miterlimit:4;stroke-dasharray:none;stroke-opacity:1;fill-opacity:1;stroke-dashoffset:0"
     id="g4807"
     font-style="normal"
     font-weight="400"
     font-size="13"
     transform="matrix(0.22694985,0,0,3.1688462,-73.18173,-2870.4977)">
    <polyline
       style="vector-effect:none;fill:#008000;stroke-width:5.20107157;stroke-miterlimit:4;stroke-dasharray:none;stroke-linecap:butt;stroke-linejoin:round;fill-opacity:1;stroke:#000000;stroke-opacity:1;stroke-dashoffset:0"
       id="polyline4805"
       points="345,1001 3674,1001 " />
  </g>
  <g
     style="font-style:normal;font-weight:400;font-size:13px;font-family:'.SF NS Text';fill:none;fill-rule:evenodd;stroke:#000000;stroke-width:5.20107171;stroke-linecap:butt;stroke-linejoin:bevel;stroke-miterlimit:4;stroke-dasharray:none;stroke-opacity:1"
     id="g4811"
     font-style="normal"
     font-weight="400"
     font-size="13"
     transform="matrix(0.22694985,0,0,3.1688462,-73.18173,-2870.4977)">
    <polyline
       style="vector-effect:none;fill:none;stroke-width:5.20107171;stroke-miterlimit:4;stroke-dasharray:none;stroke-linecap:butt"
       id="polyline4809"
       points="345,969 3674,969 " />
  </g>
  <g
     aria-label=""
     style="font-style:normal;font-weight:400;font-size:405.61230469px;font-family:'Opus Std';fill:#000000;fill-opacity:1;fill-rule:evenodd;stroke:none;stroke-width:3.16884613;stroke-linecap:butt;stroke-linejoin:bevel;stroke-opacity:1"
     id="text4813">
    <path
       d="m 293.30349,593.15261 15.41326,75.03828 c 0.81123,4.46173 1.21684,8.51786 1.21684,12.57398 0,39.75001 -40.56123,73.01021 -84.36736,73.01021 -13.3852,0 -26.3648,-3.24489 -38.53317,-9.32908 31.23215,-3.2449 54.75766,-22.30868 54.75766,-50.29592 0,-24.74236 -20.28061,-50.70154 -46.2398,-50.70154 -29.6097,0 -49.89031,22.71429 -49.89031,52.32398 0,41.37246 33.66582,68.54848 74.22705,68.54848 54.35205,0 100.59185,-35.28827 100.59185,-85.9898 0,-11.35715 -17.84694,-91.66839 -17.44133,-88.8291 43.40052,-21.09184 73.01022,-58.40817 73.01022,-97.75256 0,-53.94644 -43.40052,-95.3189 -97.34696,-95.3189 -0.81122,0 -6.48979,0.40562 -16.22449,1.21684 l -17.84694,-85.5842 c 60.43623,-51.10715 88.01787,-105.45919 88.01787,-165.0842 0,-45.83419 -18.25255,-94.507671 -55.16327,-145.614821 -41.77807,33.665821 -65.7092,100.997461 -65.7092,172.790841 0,25.55358 3.2449,50.29593 8.92347,73.82144 -92.4796,77.47195 -138.719404,148.85972 -138.719404,214.1633 0,76.66072 79.094404,140.34185 165.084204,140.34185 19.06378,0 33.26021,-2.83928 46.23981,-9.32908 z M 292.08665,60.178043 c 13.38521,13.790819 20.28061,30.015311 20.28061,49.079087 0,39.3444 -27.98724,83.55614 -82.74491,132.22961 -2.83928,-11.76275 -3.65051,-24.74235 -3.65051,-38.93878 0,-68.14287 25.14797,-143.181141 58.81379,-143.181141 2.83928,0 5.27296,0.405612 7.30102,0.811224 z M 300.60451,576.52251 271.80603,441.048 c 5.67858,-0.40561 8.92347,-0.81123 10.14031,-0.81123 34.88266,0 59.2194,32.8546 59.2194,66.52042 0,26.77041 -14.19643,50.29593 -40.56123,69.76532 z m -38.93878,-133.85206 29.20408,139.53063 c -14.19643,7.70663 -30.01531,10.95153 -49.07909,10.95153 -65.70919,0 -122.49491,-49.07909 -122.49491,-108.7041 0,-53.94643 40.15562,-109.51532 116.00512,-166.30104 l 17.03571,81.12246 c -42.18368,8.92347 -77.87756,44.61735 -77.87756,84.77297 0,34.07144 24.33674,58.00256 60.84185,63.68113 -22.30868,-13.79081 -33.26021,-31.23214 -33.26021,-51.91837 0,-27.98725 25.95919,-48.67348 59.62501,-53.13521 z"
       style="font-style:normal;font-weight:400;font-size:405.61230469px;font-family:'Opus Std';fill:#000000;fill-opacity:1;fill-rule:evenodd;stroke:none;stroke-width:3.16884613;stroke-linecap:butt;stroke-linejoin:bevel;stroke-opacity:1"
       id="path853" />
  </g>
  <g
     style="font-style:normal;font-weight:400;font-size:128px;font-family:'Opus Std';fill:#000000;fill-rule:evenodd;stroke:#000000;stroke-width:1.00010562;stroke-linecap:butt;stroke-linejoin:bevel;stroke-miterlimit:4;stroke-dasharray:none;stroke-opacity:1"
     id="g4835"
     font-style="normal"
     font-weight="400"
     font-size="128"
     transform="matrix(3.1688462,0,0,3.1688462,-1210.7854,-2870.4977)">
    <g
       aria-label=""
       style="font-style:normal;font-weight:400;font-size:128px;font-family:'Opus Std';fill:#000000;fill-opacity:1;stroke:none;stroke-width:1.00010562;stroke-miterlimit:4;stroke-dasharray:none"
       id="text4833">
      <path
         d="m 545,1081 c 0,10.624 12.672,17.28 29.056,17.28 18.304,0 30.592,-6.528 30.592,-17.28 0,-9.856 -14.976,-17.28 -29.184,-17.28 -15.488,0 -30.464,6.912 -30.464,17.28 z m 45.824,6.528 c -1.408,7.168 -7.68,7.936 -15.104,7.936 -8.064,0 -16.768,-9.344 -16.768,-19.072 0,-6.528 4.096,-9.856 12.288,-9.856 8.576,0 12.8,3.2 16.64,10.88 1.92,3.84 2.944,7.168 2.944,10.112 z"
         style="font-style:normal;font-weight:400;font-size:128px;font-family:'Opus Std';fill:#000000;fill-opacity:1;stroke:none;stroke-width:1.00010562;stroke-miterlimit:4;stroke-dasharray:none"
         id="path844" />
    </g>
  </g>
  <g
     style="font-style:normal;font-weight:400;font-size:128px;font-family:'Opus Std';fill:#800000;fill-rule:evenodd;stroke:#000000;stroke-width:1.00010562;stroke-linecap:butt;stroke-linejoin:bevel;stroke-miterlimit:4;stroke-dasharray:none;stroke-opacity:1"
     id="g4839"
     font-style="normal"
     font-weight="400"
     font-size="128"
     transform="matrix(3.1688462,0,0,3.1688462,-1088.136,-2870.4977)">
    <g
       aria-label=""
       style="font-style:normal;font-weight:400;font-size:128px;font-family:'Opus Std';fill:#800000;fill-opacity:1;stroke:none;stroke-width:1.00010562;stroke-miterlimit:4;stroke-dasharray:none"
       id="text4837">
      <path
         d="m 506.2952,1049 c 0,10.624 12.672,17.28 29.056,17.28 18.304,0 30.592,-6.528 30.592,-17.28 0,-9.856 -14.976,-17.28 -29.184,-17.28 -15.488,0 -30.464,6.912 -30.464,17.28 z m 45.824,6.528 c -1.408,7.168 -7.68,7.936 -15.104,7.936 -8.064,0 -16.768,-9.344 -16.768,-19.072 0,-6.528 4.096,-9.856 12.288,-9.856 8.576,0 12.8,3.2 16.64,10.88 1.92,3.84 2.944,7.168 2.944,10.112 z"
         style="font-style:normal;font-weight:400;font-size:128px;font-family:'Opus Std';fill:#800000;fill-opacity:1;stroke:none;stroke-width:1.00010562;stroke-miterlimit:4;stroke-dasharray:none"
         id="path847" />
    </g>
  </g>
  <g
     style="font-style:normal;font-weight:400;font-size:128px;font-family:'Opus Std';fill:#5555ff;fill-rule:evenodd;stroke:#000000;stroke-width:1.00010562;stroke-linecap:butt;stroke-linejoin:bevel;stroke-miterlimit:4;stroke-dasharray:none;stroke-opacity:1"
     id="g4843"
     font-style="normal"
     font-weight="400"
     font-size="128"
     transform="matrix(3.1688462,0,0,3.1688462,-1210.7854,-2870.4977)">
    <g
       aria-label=""
       style="font-style:normal;font-weight:400;font-size:128px;font-family:'Opus Std';fill:#5555ff;fill-opacity:1;stroke:none;stroke-width:1.00010562;stroke-miterlimit:4;stroke-dasharray:none"
       id="text4841">
      <path
         d="m 545,1017 c 0,10.624 12.672,17.28 29.056,17.28 18.304,0 30.592,-6.528 30.592,-17.28 0,-9.856 -14.976,-17.28 -29.184,-17.28 -15.488,0 -30.464,6.912 -30.464,17.28 z m 45.824,6.528 c -1.408,7.168 -7.68,7.936 -15.104,7.936 -8.064,0 -16.768,-9.344 -16.768,-19.072 0,-6.528 4.096,-9.856 12.288,-9.856 8.576,0 12.8,3.2 16.64,10.88 1.92,3.84 2.944,7.168 2.944,10.112 z"
         style="font-style:normal;font-weight:400;font-size:128px;font-family:'Opus Std';fill:#5555ff;fill-opacity:1;stroke:none;stroke-width:1.00010562;stroke-miterlimit:4;stroke-dasharray:none"
         id="path850" />
    </g>
  </g>
</svg>
